…
|     mean| median|
|--------:|------:|
| 10295.52|  10571|
> newDailySteps %>% summarise(mean=mean(totalSteps, na.rm = TRUE), median=median(totalSteps, na.rm = TRUE)) %>% knitr::kable()
> 
> 
> 
> colMeans(newDailySteps$totalSteps)
Error in colMeans(newDailySteps$totalSteps) : 
  'x' must be an array of at least two dimensions
> newDailySteps
# A tibble: 61 x 2
   date       totalSteps
   <fct>           <dbl>
 1 2012-10-01        126
 2 2012-10-02        126
 3 2012-10-03      11352
 4 2012-10-04      12116
 5 2012-10-05      13294
 6 2012-10-06      15420
 7 2012-10-07      11015
 8 2012-10-08      11913
 9 2012-10-09      12811
10 2012-10-10       9900
# ... with 51 more rows
…
